urednici - Počty úředníků: 2003-2018
…
    Autor

             Petr Bouchal 

    Zveřejněno

      2. listopadu 2019

c13o <- read_csv(here::here("data-output/legacy/groups_ALL.csv"))
dt0 <- read_rds(here::here("data-interim/objemy_pocty_scraped_raw_2012_2018.rds"))

unique(c13o$variable) %>% enframe(name = NULL)

# A tibble: 25 x 1
   value               
   <chr>               
 1 AvgSal_schvaleny    
 2 AvgSal_upraveny     
 3 Zam_schvaleny       
 4 PlatyOPPP_schvaleny 
 5 OPPP_upr2skut       
 6 Zam_uprMinusskut    
 7 PlatyOPPP_skutecnost
 8 OPPP_upraveny       
 9 PlatyOPPP_upr2skut  
10 OPPP_uprMinusskut   
# … with 15 more rows
…
